.....................
----------------------------------------------------------------------
Ran 21 tests in 0.261s

OK
Name             Stmts   Miss Branch BrPart  Cover   Missing
------------------------------------------------------------
Collatz.py          28      0     12      0   100%
TestCollatz.py      96      0      0      0   100%
------------------------------------------------------------
TOTAL              124      0     12      0   100%

